In the beginning was the word ...
…
            In the beginning was the word ...

Sentiment Analysis is Sick Yo

Basic idea

A common and intuitive approach to text is sentiment analysis. In a grand sense we are interested in the emotional content of some text, e.g. posts on Facebook, tweets, or movie reviews. Most of the time, this is obvious when one reads it, but if you have hundreds of thousands or millions of strings to analyze, you’d like to be able to do so efficiently.

We will use the tidytext package for our demonstration. It comes with a lexicon of positive and negative words that is actually a combination of multiple sources, one of which provides numeric ratings, while the others suggest different classes of sentiment.

library(tidytext)
sentiments %>% slice(sample(1:nrow(sentiments)))

# A tibble: 27,314 x 4
                word sentiment  lexicon score
               <chr>     <chr>    <chr> <int>
 1     decomposition  negative      nrc    NA
 2         imaculate  positive     bing    NA
 3         greatness  positive     bing    NA
 4         impatient  negative     bing    NA
 5     contradicting  negative loughran    NA
 6 irrecoverableness  negative     bing    NA
 7         advisable     trust      nrc    NA
 8       humiliation   disgust      nrc    NA
 9          obscures  negative     bing    NA
10        affliction  negative     bing    NA
# ... with 27,304 more rows
…
In addition, the lexicons are going to maybe be applicable to general usage of English in the western world. Some might wonder where exactly these came from or who decided that the word abacus should be affiliated with ‘trust’. You may start your path by typing ?sentiments at the console if you have the tidytext package loaded.

Sentiment Analysis Example

The first thing the baby did wrong

We demonstrate sentiment analysis with the text The first thing the baby did wrong, which is a very popular brief guide to parenting written by world renown psychologist Donald Barthelme who, in his spare time, also wrote postmodern literature. This particular text talks about an issue with the baby, whose name is Born Dancin’, who likes to tear pages out of books. Attempts are made by her parents to rectify the situation, without much success, but things are finally resolved at the end. The ultimate goal will be to see how sentiment in the text evolves over time.

How do we start? Let’s look at the sentiments data set in the tidytext package.

library(tidytext)
sentiments %>% slice(sample(1:nrow(sentiments)))

# A tibble: 27,314 x 4
             word sentiment lexicon score
            <chr>     <chr>   <chr> <int>
 1        blunder   sadness     nrc    NA
 2       solidity  positive     nrc    NA
 3       mortuary      fear     nrc    NA
 4       absorbed  positive     nrc    NA
 5     successful       joy     nrc    NA
 6          virus  negative     nrc    NA
 7   exorbitantly  negative    bing    NA
 8 discombobulate  negative    bing    NA
 9           wail  negative     nrc    NA
10 intimidatingly  negative    bing    NA
# ... with 27,304 more rows

The bing lexicon is just positive or negative. The AFINN is numerical, with ratings -5:5 that are in the score column. The others get more imaginative, but also more problematic. Why assimilate is superfluous is beyond me. It clearly should be negative given the Borg connotations.

sentiments %>% 
  filter(sentiment=='superfluous')

# A tibble: 56 x 4
           word   sentiment  lexicon score
          <chr>       <chr>    <chr> <int>
 1        aegis superfluous loughran    NA
 2    amorphous superfluous loughran    NA
 3 anticipatory superfluous loughran    NA
 4 appertaining superfluous loughran    NA
 5   assimilate superfluous loughran    NA
 6 assimilating superfluous loughran    NA
 7 assimilation superfluous loughran    NA
 8   bifurcated superfluous loughran    NA
 9  bifurcation superfluous loughran    NA
10     cessions superfluous loughran    NA
# ... with 46 more rows
…
 [1] "able"        "against"     "allow"       "almost"      "alone"       "appear"      "appreciate"  "appropriate" "available"   "awfully"     "believe"     "best"        "better"      "certain"     "clearly"    
[16] "could"       "despite"     "downwards"   "enough"      "furthermore"

# remember to call output 'word' or antijoin won't work without a 'by' argument
rnj_filtered = rnj_filtered %>% 
  unnest_tokens(output=word, input=sentence, token='words') %>%   
  anti_join(stop_words)

Now we add the sentiments via the inner_join function. Here I use ‘bing’, but you can use another, and you might get a different result.

rnj_filtered %>% 
  count(word) %>% 
  arrange(desc(n))

# A tibble: 3,287 x 2
    word     n
   <chr> <int>
 1  thou   276
 2   thy   165
 3  love   140
 4  thee   139
 5 romeo   110
 6 night    83
 7 death    71
 8  hath    64
 9   sir    58
10   art    55
# ... with 3,277 more rows

rnj_sentiment = rnj_filtered %>% 
  inner_join(sentiments)
rnj_sentiment

# A tibble: 12,670 x 5
   sentenceID    word    sentiment  lexicon score
        <int>   <chr>        <chr>    <chr> <int>
 1        629 journey anticipation      nrc    NA
 2        629 journey         fear      nrc    NA
 3        629 journey          joy      nrc    NA
 4        629 journey     positive      nrc    NA
 5        803   manly     positive      nrc    NA
 6        655   catch     surprise      nrc    NA
 7       1261 redress     positive      nrc    NA
 8       1261 redress     negative loughran    NA
 9        498  clears     positive     bing    NA
10        498  clears         <NA>    AFINN     1
# ... with 12,660 more rows
…
