In the beginning was the word ...
…
shakes_trim = shakes_trim %>%
  filter(text != '',                     # empties
         !text %in% titles,              # titles
         !str_detect(text, '^ACT|^SCENE|^Enter|^Exit|^Exeunt|^Sonnet')  # acts etc.
         )

shakes_trim %>% filter(id=='Romeo_and_Juliet') # we'll get prologue later

# A tibble: 3,992 x 2
                 id                                            text
              <chr>                                           <chr>
 1 Romeo_and_Juliet                                        PROLOGUE
 2 Romeo_and_Juliet          Two households, both alike in dignity,
 3 Romeo_and_Juliet         In fair Verona, where we lay our scene,
 4 Romeo_and_Juliet        From ancient grudge break to new mutiny,
 5 Romeo_and_Juliet    Where civil blood makes civil hands unclean.
 6 Romeo_and_Juliet    From forth the fatal loins of these two foes
 7 Romeo_and_Juliet  A pair of star-cross'd lovers take their life;
 8 Romeo_and_Juliet          Whose misadventured piteous overthrows
 9 Romeo_and_Juliet Do with their death bury their parents' strife.
10 Romeo_and_Juliet The fearful passage of their death-mark'd love,
# ... with 3,982 more rows
…
term_counts = shakes_words %>%
  group_by(id, word) %>%
  count

term_counts %>% 
  arrange(desc(n))

library(quanteda)
shakes_dtm = term_counts %>%
  cast_dfm(document=id, term=word, value=n)

## save(shakes_words, term_counts, shakes_dtm, file='data/shakes_words_df.RData')

# A tibble: 115,954 x 3
# Groups:   id, word [115,954]
                            id  word     n
                         <chr> <chr> <int>
 1                     Sonnets  love   195
 2 The_Two_Gentlemen_of_Verona  love   171
 3            Romeo_and_Juliet  love   150
 4              As_You_Like_It  love   118
 5        Love_s_Labour_s_Lost  love   118
 6   A_Midsummer_Night_s_Dream  love   114
 7                 Richard_III   god   111
 8            Titus_Andronicus  rome   103
 9      Much_Ado_about_Nothing  love    92
10                  Coriolanus  rome    90
# ... with 115,944 more rows
…
Similarity

The quanteda package has some built in similarity measures such as cosine similarity, which you can treat similarly to the standard correlation (also available). I display it visually to better get a sense of things.

## textstat_simil(shakes_dtm, margin = "documents", method = "cosine")

We can already begin to see the clusters of documents. For example, the more historical are the clump in the upper left. The oddball is The Phoenix and the Turtle, though Lover’s Complaint and the Elegy are also less similar than standard Shakespeare. The Phoenix and the Turtle is about the death of ideal love, represented by the Phoenix and Turtledove, for which there is a funeral. It actually is considered by scholars to be in stark contrast to his other output. Elegy itself is actually written for a funeral. A Lover’s Complaint is considered an inferior work by the Bard, so perhaps what we’re seeing is a reflection of that lack of quality. In general, we’re seeing things that we might expect.

Readability

We can examine readability scores for the texts, but for this we’ll need them in raw form. We already had them from before, I just added Phoenix from the Gutenberg download.

raw_texts

# A tibble: 43 x 2
                              id           text
                           <chr>         <list>
 1       A_Lover_s_Complaint.txt    <chr [813]>
 2 A_Midsummer_Night_s_Dream.txt  <chr [6,630]>
 3 All_s_Well_That_Ends_Well.txt <chr [10,993]>
 4      Antony_and_Cleopatra.txt <chr [14,064]>
 5            As_You_Like_It.txt  <chr [9,706]>
 6                Coriolanus.txt <chr [13,440]>
 7                 Cymbeline.txt <chr [11,388]>
 8                     Elegy.txt  <chr [1,316]>
 9                    Hamlet.txt <chr [13,950]>
10                   Henry_V.txt  <chr [9,777]>
# ... with 33 more rows
…
