Categorical Effects as Random – Michael Clark
…
df %>% print(n = 30)

# A tibble: 60,000 × 9
   id    cat_var       x    x_c     y re_id re_id_cat_lev2 re_id_cat_lev3
   <fct> <fct>     <dbl>  <dbl> <dbl> <dbl>          <dbl>          <dbl>
 1 1     1       -1.21   -1.43  3.04  0.562         0.628           1.15 
 2 1     1        0.277  -1.43  3.35  0.562         0.628           1.15 
 3 1     1        1.08   -1.43  3.46  0.562         0.628           1.15 
 4 1     1       -2.35   -1.43  2.64  0.562         0.628           1.15 
 5 1     2        0.429  -1.43  4.59  0.562         0.628           1.15 
 6 1     2        0.506  -1.43  3.61  0.562         0.628           1.15 
 7 1     2       -0.575  -1.43  3.54  0.562         0.628           1.15 
 8 1     2       -0.547  -1.43  2.98  0.562         0.628           1.15 
 9 1     3       -0.564  -1.43  5.28  0.562         0.628           1.15 
10 1     3       -0.890  -1.43  4.06  0.562         0.628           1.15 
11 1     3       -0.477  -1.43  4.31  0.562         0.628           1.15 
12 1     3       -0.998  -1.43  4.70  0.562         0.628           1.15 
13 2     1       -0.776   0.126 2.25  0.659         0.780           0.259
14 2     1        0.0645  0.126 2.48  0.659         0.780           0.259
15 2     1        0.959   0.126 2.99  0.659         0.780           0.259
16 2     1       -0.110   0.126 2.55  0.659         0.780           0.259
17 2     2       -0.511   0.126 3.94  0.659         0.780           0.259
18 2     2       -0.911   0.126 3.22  0.659         0.780           0.259
19 2     2       -0.837   0.126 3.98  0.659         0.780           0.259
20 2     2        2.42    0.126 4.59  0.659         0.780           0.259
21 2     3        0.134   0.126 3.58  0.659         0.780           0.259
22 2     3       -0.491   0.126 3.31  0.659         0.780           0.259
23 2     3       -0.441   0.126 2.66  0.659         0.780           0.259
24 2     3        0.460   0.126 3.42  0.659         0.780           0.259
25 3     1       -0.694   0.437 0.985 0.268        -0.0640          1.30 
26 3     1       -1.45    0.437 2.08  0.268        -0.0640          1.30 
27 3     1        0.575   0.437 2.62  0.268        -0.0640          1.30 
28 3     1       -1.02    0.437 1.24  0.268        -0.0640          1.30 
29 3     2       -0.0151  0.437 2.24  0.268        -0.0640          1.30 
30 3     2       -0.936   0.437 2.57  0.268        -0.0640          1.30 
# ℹ 59,970 more rows
# ℹ 1 more variable: cat_as_num <int>
…
