Empirical Bayes
…
m <- MASS::fitdistr(career_filtered$average, 
                    dbeta,
                    start = list(shape1 = 1, shape2 = 10))

alpha0 <- m$estimate[1]
beta0 <- m$estimate[2]

career_eb <- career %>%
  mutate(eb_estimate = (H + alpha0) / (AB + alpha0 + beta0))

career_eb

# A tibble: 9,509 x 6
   playerID  name                  H    AB average eb_estimate
   <chr>     <chr>             <int> <int>   <dbl>       <dbl>
 1 aaronha01 Hank Aaron         3771 12364  0.305        0.304
 2 aaronto01 Tommie Aaron        216   944  0.229        0.236
 3 abadan01  Andy Abad             2    21  0.0952       0.248
 4 abadijo01 John Abadie          11    49  0.224        0.254
 5 abbated01 Ed Abbaticchio      772  3044  0.254        0.254
 6 abbotfr01 Fred Abbott         107   513  0.209        0.227
 7 abbotje01 Jeff Abbott         157   596  0.263        0.262
 8 abbotku01 Kurt Abbott         523  2044  0.256        0.256
 9 abbotod01 Ody Abbott           13    70  0.186        0.245
10 abercda01 Frank Abercrombie     0     4  0            0.256
# ... with 9,499 more rows
…
career_other_filtered = career_filtered %>% 
  mutate(
    bayes_filtered_estimate = fitted(bayes_filtered)[,1] / AB,
    glmer_filtered_estimate = fitted(glmer_filtered),
  ) %>% 
  select(playerID, contains('filter'))

career_all = left_join(career_other, 
                       career_other_filtered)

career_all

# A tibble: 9,509 x 10
   playerID  name          H    AB average eb_estimate bayes_estimate glmer_estimate bayes_filtered_e~ glmer_filtered_e~
   <chr>     <chr>     <int> <int>   <dbl>       <dbl>          <dbl>          <dbl>             <dbl>             <dbl>
 1 aaronha01 Hank Aar~  3771 12364  0.305        0.304          0.304          0.304             0.304             0.304
 2 aaronto01 Tommie A~   216   944  0.229        0.236          0.234          0.234             0.238             0.238
 3 abadan01  Andy Abad     2    21  0.0952       0.248          0.242          0.240            NA                NA    
 4 abadijo01 John Aba~    11    49  0.224        0.254          0.247          0.247            NA                NA    
 5 abbated01 Ed Abbat~   772  3044  0.254        0.254          0.253          0.253             0.254             0.254
 6 abbotfr01 Fred Abb~   107   513  0.209        0.227          0.225          0.224             0.232             0.231
 7 abbotje01 Jeff Abb~   157   596  0.263        0.262          0.260          0.259             0.262             0.262
 8 abbotku01 Kurt Abb~   523  2044  0.256        0.256          0.256          0.255             0.257             0.257
 9 abbotod01 Ody Abbo~    13    70  0.186        0.245          0.239          0.238            NA                NA    
10 abercda01 Frank Ab~     0     4  0            0.256          0.248          0.247            NA                NA    
# ... with 9,499 more rows
…
Extreme predictions

career_all %>% 
  filter(average == 1) %>% 
  arrange(desc(AB))

# A tibble: 24 x 10
   playerID  name         H    AB average eb_estimate bayes_estimate glmer_estimate bayes_filtered_es~ glmer_filtered_e~
   <chr>     <chr>    <int> <int>   <dbl>       <dbl>          <dbl>          <dbl>              <dbl>             <dbl>
 1 paciojo01 John Pa~     3     3       1       0.266          0.259          0.258                 NA                NA
 2 birasst01 Steve B~     2     2       1       0.264          0.257          0.255                 NA                NA
 3 hopkimi01 Mike Ho~     2     2       1       0.264          0.256          0.255                 NA                NA
 4 banisje01 Jeff Ba~     1     1       1       0.261          0.253          0.253                 NA                NA
 5 bassdo01  Doc Bass     1     1       1       0.261          0.254          0.253                 NA                NA
 6 burnscb01 C. B. B~     1     1       1       0.261          0.253          0.253                 NA                NA
 7 gallaja01 Jackie ~     1     1       1       0.261          0.254          0.253                 NA                NA
 8 gleasro01 Roy Gle~     1     1       1       0.261          0.255          0.253                 NA                NA
 9 kuczest01 Steve K~     1     1       1       0.261          0.254          0.253                 NA                NA
10 liddeda01 Dave Li~     1     1       1       0.261          0.254          0.253                 NA                NA
# ... with 14 more rows

career_all %>% 
  filter(average == 0) %>% 
  arrange(desc(AB))

# A tibble: 626 x 10
   playerID  name         H    AB average eb_estimate bayes_estimate glmer_estimate bayes_filtered_es~ glmer_filtered_e~
   <chr>     <chr>    <int> <int>   <dbl>       <dbl>          <dbl>          <dbl>              <dbl>             <dbl>
 1 littlla01 Larry L~     0    23       0       0.241          0.234          0.233                 NA                NA
 2 pottemi01 Mike Po~     0    23       0       0.241          0.235          0.233                 NA                NA
 3 kennejo01 John Ke~     0    19       0       0.244          0.236          0.236                 NA                NA
 4 redmoha01 Harry R~     0    19       0       0.244          0.237          0.236                 NA                NA
 5 wrighcy01 Cy Wrig~     0    18       0       0.244          0.238          0.237                 NA                NA
 6 condera01 Ramon C~     0    16       0       0.246          0.239          0.238                 NA                NA
 7 creelgu01 Gus Cre~     0    15       0       0.247          0.240          0.239                 NA                NA
 8 gulanmi01 Mike Gu~     0    15       0       0.247          0.239          0.239                 NA                NA
 9 lerchdu01 Dutch L~     0    15       0       0.247          0.239          0.239                 NA                NA
10 luebbro01 Roy Lue~     0    15       0       0.247          0.240          0.239                 NA                NA
# ... with 616 more rows
…
