Michael Clark: Practical Bayes Part I
…
# create the primary data frame

main_df = 
  create_data(N = 1000) %>% 
  as_tibble() %>% 
  select(group, b1:x3, y) %>% 
  mutate(
    b1 = factor(b1),   # will help with visuals
    b2 = factor(b2)
  )

main_df

# A tibble: 1,000 x 7
   group b1    b2         x1      x2     x3     y
   <dbl> <fct> <fct>   <dbl>   <dbl>  <dbl> <dbl>
 1     1 1     1      0.155   0.145  -1.84   4.01
 2     1 1     1     -0.356   1.33   -0.604  3.84
 3     1 1     1     -0.329   0.488  -0.441  3.37
 4     1 1     1      1.08   -1.50    1.00   3.80
 5     1 0     1     -0.563  -1.07   -0.150  1.81
 6     1 1     1     -0.0694 -0.229  -0.387  4.54
 7     1 0     1      0.374   0.606   2.04   4.17
 8     1 0     1      2.06   -0.266   0.168  1.83
 9     2 0     0      0.278   0.0559  1.04   1.58
10     2 1     0      0.184   0.230   0.174  3.56
#  with 990 more rows
…
